{
    "variables": {
        "aws_region": "us-east-1",
        "ssh_username": "ubuntu",
        "inst_type": "t2.micro",
        "source_ami": "ami-07ebfd5b3428b6f4d",
        "volume_size": 8
    },
    "builders": [
        {
            "type": "amazon-ebs",
            "access_key": "{{user `aws_access_key`}}",
            "secret_key": "{{user `aws_secret_key`}}",
            "region": "{{user `aws_region`}}",
            "source_ami": "{{user `source_ami`}}",
            "instance_type": "{{user `inst_type`}}",
            "ssh_username": "{{user `ssh_username`}}",
            "ami_name": "TELE_6603_{{uuid}}",
            "ami_description": "Assignment7 AMI practice",
            "launch_block_device_mappings": [
                {
                    "device_name": "/dev/sda1",
                    "volume_size": "{{user `volume_size`}}",
                    "volume_type": "gp2",
                    "delete_on_termination": true
                }
            ],
            "tags": {
                "OS_Version": "Ubuntu",
                "Base_AMI_Name": "{{ .SourceAMIName }}",
                "Extra": "{{ .SourceAMITags.TagName }}"
              }
        }
    ],
    "provisioners": [
        {
            "type": "shell",
            "inline": [
                "sudo curl https://apt.puppetlabs.com/puppet6-release-bionic.deb > /tmp/puppetlabs-release-bionic.deb",
                "sudo dpkg -i /tmp/puppetlabs-release-bionic.deb",
		"sudo sh -c 'echo \"deb http://apt.postgresql.org/pub/repos/apt $(lsb_release -cs)-pgdg main\" > /etc/apt/sources.list.d/pgdg.list'",
		"wget --quiet -O - https://www.postgresql.org/media/keys/ACCC4CF8.asc | sudo apt-key add -",
                "sudo apt-get update -y",
                "sudo apt-get -y install puppet-agent",
                "sudo apt-get -y install unzip python3-pip postgresql-12",
		"pip3 install flask",
		"sudo pg_ctlcluster 12 main start"
            ]
        },
        {
            "type":"puppet-masterless",
        
            "puppet_bin_dir": "/opt/puppetlabs/bin",
	    "module_paths": "/etc/puppet/code/modules",
            "manifest_file": "config.pp"
        }
    ],
    "post-processors": [
	    {"type":"manifest"},
	    {
                "type":"shell-local",
                "inline":["cat ./packer-manifest.json"]
	    }
    ]
}
